{
    "basename": "asr-nested_06-1d576ad",
    "cmd": "lfortran --show-asr --no-color {infile} -o {outfile}",
    "infile": "tests/../integration_tests/nested_06.f90",
    "infile_hash": "b94500b7f8becc154e61ec7d99e50e8c4cbbd4c0ca20bb262a670562",
    "outfile": null,
    "outfile_hash": null,
    "stdout": "asr-nested_06-1d576ad.stdout",
    "stdout_hash": "9db3f55d05f7a7db77d7643283f742896682f87d2e1e3a789359db76",
    "stderr": null,
    "stderr_hash": null,
    "returncode": 0
}