{
    "basename": "asr-arrays_10-2bab681",
    "cmd": "lfortran --show-asr --no-color {infile} -o {outfile}",
    "infile": "tests/../integration_tests/arrays_10.f90",
    "infile_hash": "0146a08c678315b48d4c8b7e901495a28efc46a8c25989fd6ebb887f",
    "outfile": null,
    "outfile_hash": null,
    "stdout": "asr-arrays_10-2bab681.stdout",
    "stdout_hash": "f39ff6abf0281d4ea7c27813f79fe4ec2554061abc0338f2e3410a74",
    "stderr": null,
    "stderr_hash": null,
    "returncode": 0
}