{
    "basename": "asr-allocate_01-f3446f6",
    "cmd": "lfortran --show-asr --no-color {infile} -o {outfile}",
    "infile": "tests/../integration_tests/allocate_01.f90",
    "infile_hash": "96c52770cdc64608c1daf52a37e31fd4566ef0f27fe3b50cc483978d",
    "outfile": null,
    "outfile_hash": null,
    "stdout": "asr-allocate_01-f3446f6.stdout",
    "stdout_hash": "9c8313861a500ff065fdfd0ff69bbdf746b262bba4c0a192db5c19a6",
    "stderr": null,
    "stderr_hash": null,
    "returncode": 0
}