{
    "basename": "asr-derived_types_07-ccfd81f",
    "cmd": "lfortran --show-asr --no-color {infile} -o {outfile}",
    "infile": "tests/../integration_tests/derived_types_07.f90",
    "infile_hash": "619186f8d016131e3ecfef1d2fc42029d2315599d492d6f4dea93dc2",
    "outfile": null,
    "outfile_hash": null,
    "stdout": "asr-derived_types_07-ccfd81f.stdout",
    "stdout_hash": "772b2c518c8f7dc222be366eeae5fb77cbace023dfc03e5863559fa9",
    "stderr": null,
    "stderr_hash": null,
    "returncode": 0
}