{
    "basename": "asr-modules_05-f939cc6",
    "cmd": "lfortran --show-asr --no-color {infile} -o {outfile}",
    "infile": "tests/modules_05.f90",
    "infile_hash": "e9f1e3a9e80949247e90dc618aff63fe80d5cc91017f860a752efaff",
    "outfile": null,
    "outfile_hash": null,
    "stdout": "asr-modules_05-f939cc6.stdout",
    "stdout_hash": "ab449b80c5dc7a9d4634e041252a62eccdb6a392944286b26a86c2a4",
    "stderr": null,
    "stderr_hash": null,
    "returncode": 0
}