{
    "basename": "asr-associate_04-8bcb3df",
    "cmd": "lfortran --show-asr --no-color {infile} -o {outfile}",
    "infile": "tests/../integration_tests/associate_04.f90",
    "infile_hash": "902a12c91e1df67575c96534b3b5a55ca93e85aa0777e689ecc1334c",
    "outfile": null,
    "outfile_hash": null,
    "stdout": "asr-associate_04-8bcb3df.stdout",
    "stdout_hash": "cf2841e87ea647eb12535a6a2a118c79d8d37e3580e35de7d6de5947",
    "stderr": null,
    "stderr_hash": null,
    "returncode": 0
}