{
    "basename": "asr-functions_04-ea50b75",
    "cmd": "lfortran --show-asr --no-color {infile} -o {outfile}",
    "infile": "tests/../integration_tests/functions_04.f90",
    "infile_hash": "0a91887ab68c5d37801e995e8adb2659a627e382899a76122361e78c",
    "outfile": null,
    "outfile_hash": null,
    "stdout": "asr-functions_04-ea50b75.stdout",
    "stdout_hash": "488d6238b3b3aa3d0904c38c40acdc97fba9296db176cc8d509a28fe",
    "stderr": null,
    "stderr_hash": null,
    "returncode": 0
}