{
    "basename": "asr-arrays_op_6-030b24e",
    "cmd": "lfortran --show-asr --no-color {infile} -o {outfile}",
    "infile": "tests/../integration_tests/arrays_op_6.f90",
    "infile_hash": "c714cdfef180f23c5c5708d96aabb474f944b24bd8c9c964a84a3ed1",
    "outfile": null,
    "outfile_hash": null,
    "stdout": "asr-arrays_op_6-030b24e.stdout",
    "stdout_hash": "2ab1b09296efc70c7ffa206e3f878e908af49fbe234c50b8347db00d",
    "stderr": null,
    "stderr_hash": null,
    "returncode": 0
}