{
    "basename": "cpp-arrays_01-4fac8c3",
    "cmd": "lfortran --no-color --show-cpp {infile}",
    "infile": "tests/../integration_tests/arrays_01.f90",
    "infile_hash": "f7df4142feb383f836dfa072a60673922e8873b5695f893be8329b89",
    "outfile": null,
    "outfile_hash": null,
    "stdout": "cpp-arrays_01-4fac8c3.stdout",
    "stdout_hash": "9ac72b86e8bc388aa39829836353901f916bbd286ebb8afc360385ad",
    "stderr": null,
    "stderr_hash": null,
    "returncode": 0
}