{
    "basename": "cpp-do_concurrent_reduce-373b02e",
    "cmd": "lfortran --no-color --show-cpp {infile}",
    "infile": "tests/do_concurrent_reduce.f90",
    "infile_hash": "44ebdebb05b853f4680c203c3b2b0e98e9285d1f3923ecbc255bc105",
    "outfile": null,
    "outfile_hash": null,
    "stdout": "cpp-do_concurrent_reduce-373b02e.stdout",
    "stdout_hash": "6aeb16081f5550c564108ef06d78e5b99612596e47d404e183eb27dd",
    "stderr": null,
    "stderr_hash": null,
    "returncode": 0
}