{
    "basename": "llvm-allocate_02-7f23768",
    "cmd": "lfortran --no-color --show-llvm {infile} -o {outfile}",
    "infile": "tests/../integration_tests/allocate_02.f90",
    "infile_hash": "8990c141e1a8d058f4fdbddb2501648c939fa3bb750fa3458a24f876",
    "outfile": null,
    "outfile_hash": null,
    "stdout": "llvm-allocate_02-7f23768.stdout",
    "stdout_hash": "b6c6287c8a8a7b8dd155b93b1556395e833bee7f0aaabd6cf91479d5",
    "stderr": null,
    "stderr_hash": null,
    "returncode": 0
}