{
    "basename": "llvm-associate_04-97f4e70",
    "cmd": "lfortran --no-color --show-llvm {infile} -o {outfile}",
    "infile": "tests/../integration_tests/associate_04.f90",
    "infile_hash": "902a12c91e1df67575c96534b3b5a55ca93e85aa0777e689ecc1334c",
    "outfile": null,
    "outfile_hash": null,
    "stdout": "llvm-associate_04-97f4e70.stdout",
    "stdout_hash": "c881091fc12ae190ad5178fbfa21f95ba76ba833c372636bfc4f0e85",
    "stderr": null,
    "stderr_hash": null,
    "returncode": 0
}