{
    "basename": "llvm-string_04-2d3483c",
    "cmd": "lfortran --no-color --show-llvm {infile} -o {outfile}",
    "infile": "tests/../integration_tests/string_04.f90",
    "infile_hash": "1b092d9e71bbd1bc23e03b5570e3cdb8b87541e92970a9a2cd7719f5",
    "outfile": null,
    "outfile_hash": null,
    "stdout": "llvm-string_04-2d3483c.stdout",
    "stdout_hash": "f9ac81da2c9b0d296284fb0b1600133b114aaf528bce4f75c6f31308",
    "stderr": null,
    "stderr_hash": null,
    "returncode": 0
}