{
    "basename": "llvm-boz_01-def9db5",
    "cmd": "lfortran --no-color --show-llvm {infile} -o {outfile}",
    "infile": "tests/../integration_tests/boz_01.f90",
    "infile_hash": "0834d7e263b86abd28671af7f096f5f3359c8ff113f86332bed9c187",
    "outfile": null,
    "outfile_hash": null,
    "stdout": "llvm-boz_01-def9db5.stdout",
    "stdout_hash": "c3e0db63ddbc5abbdd5231211af8be889b05fb7037e6da2992327fd7",
    "stderr": null,
    "stderr_hash": null,
    "returncode": 0
}